{
    "id": "{83620EF9-6A24-6166-E0B0-F2F97591A845}",
    "name": "CCUBackup",
    "type": 3,
    "vendor": "HomeMatic",
    "aliases":
    [
        "CCUBackup"
    ],
    "url": "https://gitlab.com/sg-ips-module/public/CCUBackup/-/blob/master/README.md",
    "parentRequirements": [],
    "childRequirements": [],
    "implemented": [],
    "prefix": "CCUB"
}